…
```

To convert the character strings to `(time, status)`, use `parse_number()` to parse out the number and `str_detect()` to detect whether the string contains "+":

```{r}
#| output: false

df <- tibble(
  MP = MP, # for comparison with newly created variables
  time = parse_number(MP), # extract the number
  status = 1 - str_detect(MP, "\\+") # "\\" to escape literal "+"
)

df
# A tibble: 21 × 3
#    MP     time status
#    <chr> <dbl>  <dbl>
#  1 10       10      1
#  2 7         7      1
#  3 32+      32      0
#  4 23       23      1
#  5 22       22      1
#  6 6         6      1
#  7 16       16      1
#  8 34+      34      0
#  9 32+      32      0
# 10 25+      25      0
# ℹ 11 more rows
# ℹ Use `print(n = ...)` to see more rows
```
…
