Chapter 1 - Introduction – BMI/STAT 741 Course Study Site
…
# Convert to (time, status) format
df <- tibble(
  MP = MP,
  time = parse_number(MP),               # Extract numeric part
  status = 1 - str_detect(MP, "\\+")    # Censored if "+" detected
)

# Display the parsed data
df

# A tibble: 21 × 3
#    MP     time status
#    <chr> <dbl>  <dbl>
#  1 10       10      1
#  2 7         7      1
#  3 32+      32      0
#  4 23       23      1
#  5 22       22      1
#  6 6         6      1
#  7 16       16      1
#  8 34+      34      0
#  9 32+      32      0
# 10 25+      25      0
# ℹ 11 more rows
# ℹ Use `print(n = ...)` to see more rows
…
