BMI/STAT 741 Course Study Site - Chapter 1 - Introduction
…
MP <- c(10, 7, "32+", 23, 22, 6, 16, "34+", "32+", "25+", "11+", "20+", 
        "19+", 6, "17+", "35+", 6, 13, "9+", "6+","10+")

To convert this vector to the tidy format, use parse_number() to parse out the number and str_detect() to detect whether the entry contains “+”:

df <- tibble(
  MP = MP,
  time = parse_number(MP),
  status = 1 - str_detect(MP, "\\+") # escape literal "+"
)

df

# A tibble: 21 × 3
   MP     time status
   <chr> <dbl>  <dbl>
 1 10       10      1
 2 7         7      1
 3 32+      32      0
 4 23       23      1
 5 22       22      1
 6 6         6      1
 7 16       16      1
 8 34+      34      0
 9 32+      32      0
10 25+      25      0
# ℹ 11 more rows
…
